volumes,prices
2.0,1e-323
2165.919300000136,0.220600912182817
-4193.841900000465,-0.9502878238017664
-40304.1455000011,-0.1579492592928034
-42073.78210000175,0.44875672640863784
-7754.620900000013,-0.09129473245133082
-19480.22650000082,-0.24662272632361798
-5284.816200000296,0.3551304512524267
4225.356500000096,0.8919625139983212
-10545.834599999947,-0.6227744172666339
-10602.32280000078,-0.265239537121789
-4538.215900000083,0.09492355123910821
-2865.2913999998527,0.15365438738152828
5748.5883000005415,0.7395517275129636
-1199.9643999998589,1.1651624583801266
1716.072199999573,-2.474563786197689
-4720.949900000192,0.1409576457710709
4762.534800000292,0.5438864877831976
4142.4307000002045,0.18710206632553275
3348.8240999999216,0.15476738111760974
-1945.8063000001275,0.03046993119196899
3617.528700000308,0.3161149129815563
3463.661599999821,-0.06674294431731503
-12863.53889999989,-0.1057253141002968
-3653.5860999998476,-0.15079059005012937
9685.172499999786,-0.7006379229413725
1272.6847000001617,0.43501606991384645
-9776.86370000053,0.28703444413330026
-1249.2090000003082,-0.6495037868390499
-45485.97960000238,0.648487768487149
1108.194300000072,0.5385518167919999
-23033.54960000007,0.4514031498420382
-3367.225099999854,0.02483522781545863
39244.91890000127,-0.47734337409209293
2193.8271000001077,0.19688212402422875
-4590.989399999762,0.6357734669006961
-5819.926499999896,0.03198489094675831
246.965699999957,-0.45525311083281766
-1976.888000000159,-0.22017422814790732
-3673.3637999998246,-0.29120559114736394
-11510.878900000353,0.4015277265461804
-7237.5345000001325,-0.7716515561129981
-3243.8841000000502,0.7755578050367029
-6329.175199999576,-0.7993247939628575
-5634.035600000185,-1.4369431460276034
-8366.4850999995,0.7129344444270642
-3094.7086000001,-0.8155619931823282
-1060.099200000106,0.7044538527996365
37820.29199999724,0.6677854425093568
-1999.99419999967,-2.514287030178361
81276.61539999748,-0.6308862712377944
12431.835700000276,-0.38935961841172056
23665.74569999929,0.08166191965264533
16247.034899999304,-0.4803689998685535
3401.1104000001433,0.3260678221070019
2960.581699999988,-0.035081424784215526
6059.4445000001615,0.8950288158541058
2143.6898000005967,0.10596948237070482
4440.992799999527,0.3661151900284139
7043.923799999924,0.4304527623341871
1334.9574000001558,0.2915223422096161
-440.0472000000882,-0.700314594446727
1295.3479000002117,0.8852558566871428
2766.433700000118,1.2056770882233345
1566.2862000002242,1.0058313535528032
890.2456000001694,2.3529142839726847
-5574.6488000000645,0.08265478224933652
-10176.982499999984,-0.4349265759112457
-8859.781400000713,-0.18554399483315057
7870.73100000016,0.3587350106686263
-8571.960499999957,-0.24502958601916028
-6079.987299999735,-0.03953896079674533
-174198.71450000157,0.22382714575623736
-6761.936500000535,0.1396278823849187
-3681.124300000065,-0.06959693326881874
-361.8644999998578,1.1082766967693964
6453.616000000158,1.418013601430187
1691.3871000000981,-0.3034245181545942
-1239.5579999995534,-0.40306563118401245
-219.47660000012183,0.04903808502617282
79.5493999999162,0.1288042066282931
4432.906200000274,0.968202759925905
672.4099999999999,-1.0238784370477634
1901.0840000002245,0.13981662793037383
3560.157200000169,0.8959474260679067
9544.684499999417,0.7140323829790322
5317.334700000676,0.40207872543201295
2449.3520000000753,-0.5078891395655076
-3103.4499000004143,-0.15827976218376774
4394.110699999692,1.2498148756867793
-439.56399999973655,-0.7113665161601302
687.3801999999123,-0.5846566265276709
-6187.9586000003255,-0.503006475485664
1220.359799999791,0.6866525777613112
2301.069499999736,0.8277458982395456
5179.632300000223,-0.3737957059950269
5039.714899999679,0.11026506716472106
1434.2459000000963,-0.6390360340341319
-1752.8985999999713,-0.6415292904974277
8173.858499999544,0.6806201044149686
6417.576499999643,0.22810153220807786
-1051.8037999997614,-0.6546503555614803
6370.603499999874,0.12576747153016807
1128.768499999871,-0.3911706169712302
-2435.050299999926,-0.1577092190850011
-2893.8048999997554,0.5534451139638473
1996.5863999998837,0.4978222539219342
1564.6141999999418,-0.2918228285531917
3698.8199000000895,0.08935839227248159
9231.112599999378,1.1835858750081205
2043.3502999998564,-0.9831149823296313
2659.4476000000323,-3.1881759192501824
-126.73359999984677,-0.7945609436435177
-5940.611299999484,0.2574949420636257
2196.4121999998133,0.4305757498538604
-2545.6873999998315,0.19204737417168255
2168.4110000001237,0.8141642996213928
3845.9769000002307,0.8337891577842645
2407.354100000044,-2.7758861820764653
8956.57210000007,1.0959069535749044
7027.0367999994305,-0.2094264249940336
2930.843000000081,0.6199211281070711
3128.5665000001063,-0.32026303875070156
1345.0707999998958,0.16439765593545824
-3329.6004999999495,-1.1606711059856338
5003.1140000000705,0.2650772075019848
6896.48419999977,-0.28540849090260095
1436.0439000000551,-0.1020804062122156
7009.2850999999755,0.8050770762315571
1674.9591000001637,0.03855309847135842
2459.896599999971,-1.940083456522151
1916.7469000001183,-0.8117596274691817
3743.2162999998727,0.9019308943089367
-23.55520000000979,-0.15474730338496093
-2586.487899999698,-0.1539356992969497
1198.8800999999148,-0.013403747687850041
10258.474099999843,1.2464057048652288
-1837.5417999998172,-0.7754257833808206
4551.074300000084,0.23050282490195795
1856.3989000000001,-0.09293680297397977
-1068.910900000108,-0.9367913562131954
-2830.460999999821,-0.7375492916605834
1212.690899999914,2.7047498328612143
-10795.108000000044,0.04662705873504481
-59.63890000032552,1.3689034838311358
2563.510700000239,-0.24601295742454893
-4926.852299999646,-0.23869814552767965
1407.7865999999194,0.28843175958297035
5172.436199999858,-0.13097576948264505
-929.3173999994651,-0.0022363026462894307
12222.961999999541,3.1457268092491075
10308.158699999993,0.9093599116621899
-1.74050000027637,0.196891895272101
4247.266600000014,1.1106792793242375
1708.3155999999508,0.3977054370705257
-3764.463799999947,-0.35551683435444503
-11716.910599999777,-0.06534054787167695
-7082.015400000058,-0.09202843361259652
-8966.158600000472,-2.319865343578118
888.6365999998561,1.859851298434376
755.7917000000307,1.2563991383892297
559.0067000001873,2.6977846722325785
-4989.73930000007,0.9479822496729033
-2448.1104000002015,-0.19110416871380365
-3150.301099999848,0.2342992384427174
-1144.196899999839,-0.17230311834858977
-7367.309499999843,0.028091598919655562
-3836.0329999998576,-0.3503892271424428
-7582.2438999999795,1.263848717037928
